{
 "actions": [],
 "autoname": "naming_series:",
 "creation": "2021-09-20 10:33:22.051261",
 "doctype": "DocType",
 "editable_grid": 1,
 "engine": "InnoDB",
 "field_order": [
  "related_to_procurement_doc_id",
  "naming_series",
  "pm_work_order_state",
  "table_status",
  "work_order_exel_file_section",
  "fm_admin_email",
  "project_code_wo",
  "work_order",
  "vendor",
  "vendor_name",
  "tar",
  "cost_center",
  "store_name",
  "format",
  "oracle_task",
  "asset_task",
  "wo_amount",
  "unit_of_measure",
  "admin_finance_section",
  "parent_department",
  "pm_reviewer",
  "fm_approver_level_1",
  "fm_approver_level_2",
  "procurement_department",
  "user_wo",
  "procurement_approver_lv_1",
  "procurement_approver_lv_2",
  "procurement_approver_lv_3",
  "procurement_approver_lv_4",
  "column_break_17",
  "rrf",
  "quotation_invoice"
 ],
 "fields": [
  {
   "fieldname": "related_to_procurement_doc_id",
   "fieldtype": "Data",
   "label": "Related to Procurement Doc ID",
   "read_only": 1
  },
  {
   "fieldname": "naming_series",
   "fieldtype": "Select",
   "hidden": 1,
   "label": "Namimg Series",
   "options": "FM2-.YYYY.-W.#####\nWO-",
   "read_only": 1
  },
  {
   "fieldname": "pm_work_order_state",
   "fieldtype": "Link",
   "label": "PM Work Order State",
   "options": "Workflow State",
   "read_only": 1
  },
  {
   "fieldname": "table_status",
   "fieldtype": "HTML",
   "label": "Table Status"
  },
  {
   "collapsible": 1,
   "fieldname": "work_order_exel_file_section",
   "fieldtype": "Section Break",
   "label": "Work Order Excel File"
  },
  {
   "fetch_from": "work_order_code.project_code_wo",
   "fieldname": "project_code_wo",
   "fieldtype": "Link",
   "label": "Project Code",
   "options": "Project"
  },
  {
   "fetch_from": "work_order_code.work_order",
   "fieldname": "work_order",
   "fieldtype": "Data",
   "label": "Work Order"
  },
  {
   "fetch_from": "work_order_code.vendor",
   "fieldname": "vendor",
   "fieldtype": "Link",
   "label": "Vendor Code",
   "options": "Vendor"
  },
  {
   "fetch_from": "vendor.vendor_name",
   "fieldname": "vendor_name",
   "fieldtype": "Data",
   "label": "Vendor Name"
  },
  {
   "fetch_from": "oracle_task.task_number",
   "fieldname": "asset_task",
   "fieldtype": "Data",
   "label": "Asset Task"
  },
  {
   "fetch_from": "work_order_code.tar",
   "fieldname": "tar",
   "fieldtype": "Data",
   "label": "TAR"
  },
  {
   "fieldname": "cost_center",
   "fieldtype": "Link",
   "label": "Cost Center",
   "options": "Store Active"
  },
  {
   "fetch_from": "work_order_code.wo_amount",
   "fieldname": "wo_amount",
   "fieldtype": "Currency",
   "label": "WO Amount"
  },
  {
   "fieldname": "unit_of_measure",
   "fieldtype": "Data",
   "hidden": 1,
   "label": "Unit of Measure"
  },
  {
   "collapsible": 1,
   "fieldname": "admin_finance_section",
   "fieldtype": "Section Break",
   "label": "Admin Finance"
  },
  {
   "fieldname": "parent_department",
   "fieldtype": "Link",
   "label": "Department",
   "options": "Department"
  },
  {
   "fieldname": "pm_reviewer",
   "fieldtype": "Link",
   "label": "PM Reviewer",
   "options": "User"
  },
  {
   "fieldname": "fm_approver_level_1",
   "fieldtype": "Link",
   "label": "FM Approver Level 1",
   "options": "User"
  },
  {
   "fieldname": "fm_approver_level_2",
   "fieldtype": "Link",
   "label": "FM Approver Level 2",
   "options": "User"
  },
  {
   "fieldname": "procurement_department",
   "fieldtype": "Link",
   "label": "Procurement Department",
   "options": "Department"
  },
  {
   "fieldname": "user_wo",
   "fieldtype": "Link",
   "label": " Procurement Person",
   "options": "User"
  },
  {
   "fieldname": "procurement_approver_lv_1",
   "fieldtype": "Link",
   "hidden": 1,
   "label": "Procurement Approver Lv 1",
   "options": "User"
  },
  {
   "fieldname": "procurement_approver_lv_2",
   "fieldtype": "Link",
   "hidden": 1,
   "label": "Procurement Approver Lv 2",
   "options": "User"
  },
  {
   "fieldname": "procurement_approver_lv_3",
   "fieldtype": "Link",
   "hidden": 1,
   "label": "Procurement Approver Lv 3",
   "options": "User"
  },
  {
   "fieldname": "procurement_approver_lv_4",
   "fieldtype": "Link",
   "hidden": 1,
   "label": "Procurement Approver Lv 4",
   "options": "User"
  },
  {
   "fieldname": "column_break_17",
   "fieldtype": "Column Break"
  },
  {
   "fieldname": "rrf",
   "fieldtype": "Attach",
   "in_list_view": 1,
   "label": "RRF"
  },
  {
   "fieldname": "quotation_invoice",
   "fieldtype": "Attach",
   "in_list_view": 1,
   "label": "Quotation/Invoice"
  },
  {
   "fieldname": "fm_admin_email",
   "fieldtype": "Link",
   "label": "FM admin email",
   "options": "User"
  },
  {
   "fieldname": "oracle_task",
   "fieldtype": "Link",
   "label": "Oracle Task",
   "options": "Oracle Task"
  },
  {
   "fetch_from": "cost_center.store_name",
   "fieldname": "store_name",
   "fieldtype": "Data",
   "label": "Store Name"
  },
  {
   "fetch_from": "cost_center.format",
   "fieldname": "format",
   "fieldtype": "Data",
   "label": "Format"
  }
 ],
 "index_web_pages_for_search": 1,
 "links": [],
 "modified": "2021-12-30 09:54:41.421342",
 "modified_by": "Administrator",
 "module": "Accounts",
 "name": "Verisae Work Order",
 "name_case": "Title Case",
 "owner": "Administrator",
 "permissions": [
  {
   "create": 1,
   "delete": 1,
   "email": 1,
   "export": 1,
   "print": 1,
   "read": 1,
   "report": 1,
   "role": "System Manager",
   "share": 1,
   "write": 1
  },
  {
   "email": 1,
   "export": 1,
   "print": 1,
   "read": 1,
   "report": 1,
   "role": "Approved LV 1 (related to PM)",
   "share": 1,
   "write": 1
  }
 ],
 "sort_field": "modified",
 "sort_order": "DESC",
 "track_changes": 1
}